<svg xmlns="http://www.w3.org/2000/svg" width="23" height="20" viewBox="0 0 23 20">
    <g fill="none" fill-rule="evenodd">
        <path stroke="#323232" stroke-width="1.25" d="M11.869.88a.88.88 0 0 0-1.281.044c-.07.076-9.381 16.05-9.86 16.903a1.159 1.159 0 0 0-.103.471c0 .517.327.945.759 1.048l19.533.029c.519 0 .958-.472.958-1.076 0-.163-.037-.324-.077-.422L11.868.88z"/>
        <text fill="#323232" font-family="ProximaNova-Extrabld, Proxima Nova" font-size="13.75" font-weight="600">
            <tspan x="9.375" y="16.5">!</tspan>
        </text>
    </g>
</svg>
